module bitbucket.org/kelseyhightower/weather-api

require (
	cloud.google.com/go v0.25.0
	contrib.go.opencensus.io/exporter/stackdriver v0.5.0
	github.com/golang/glog v0.0.0-20160126235308-23def4e6c14b // indirect
	github.com/golang/protobuf v1.1.0 // indirect
	github.com/google/go-cmp v0.2.0 // indirect
	github.com/googleapis/gax-go v1.0.0 // indirect
	github.com/gorilla/context v1.1.1 // indirect
	github.com/gorilla/mux v1.6.2 // indirect
	github.com/lib/pq v0.0.0-20180523175426-90697d60dd84 // indirect
	github.com/openzipkin/zipkin-go v0.1.0 // indirect
	go.opencensus.io v0.14.0
	golang.org/x/net v0.0.0-20180710231904-039a4258aec0 // indirect
	golang.org/x/oauth2 v0.0.0-20180620175406-ef147856a6dd // indirect
	golang.org/x/sync v0.0.0-20180314180146-1d60e4601c6f // indirect
	golang.org/x/text v0.3.0 // indirect
	google.golang.org/api v0.0.0-20180712151135-781db45e5b94 // indirect
	google.golang.org/appengine v1.1.0 // indirect
	google.golang.org/genproto v0.0.0-20180709204101-e92b11657268 // indirect
	google.golang.org/grpc v1.13.0 // indirect
)
